{
    "$schema": "https://json-schema.org/draft/2020-12/schema",
    "$id": "https://gitlab.com/tobi08151405/open-light-control/-/raw/master/micropython/config/schemas/outputs.schema.json",
    "title": "I2C Responder Outputs Config",
    "description": "A Config File for an I2C Responder for open-light-control",
    "type": "object",
    "properties": {
        "leds": {
            "type": "object",
            "description": "Pins for LED Matrix",
            "properties": {
                "rows": {
                    "type": "array",
                    "description": "List of Pin to use for Rows",
                    "items": {
                        "type": "integer",
                        "description": "Pin for Row"
                    },
                    "minItems": 1
                },
                "columns": {
                    "type": "array",
                    "description": "List of Pin to use for Columns",
                    "items": {
                        "type": "integer",
                        "description": "Pin for Column"
                    },
                    "minItems": 1
                }
            }
        },
        "rgb-leds": {
            "type": "object",
            "description": "Pins for RGB LED Matrix",
            "properties": {
                "rows": {
                    "type": "array",
                    "description": "List of Pin to use for Rows",
                    "items": {
                        "type": "integer",
                        "description": "Pin for Row"
                    },
                    "minItems": 1
                },
                "columns": {
                    "type": "array",
                    "description": "List of Pins to use for RGB Columns",
                    "items": {
                        "type": "array",
                        "items": {
                            "type": "integer",
                            "description": "Pin for R/G/B Column"
                        },
                        "minItems": 3,
                        "maxItems": 3
                    },
                    "minItems": 1
                }
            }
        },
        "displays": {
            "type": "object",
            "description": "spi interface to use for displays",
            "properties": {
                "spi-interface": {
                    "type": "integer",
                    "description": "number of the spi-interface"
                },
                "sclk-pin": {
                    "type": "integer",
                    "description": "Pin for sclk"
                },
                "sda-pin": {
                    "type": "integer",
                    "description": "Pin for combined mosi/miso"
                },
                "cs-pins": {
                    "type": "array",
                    "description": "list of cs-pins",
                    "items": {
                        "type": "integer",
                        "description": "cs-pin"
                    }
                }
            }
        },
        "motors": {
            "type": "array",
            "description": "list of Pin pairs for motor controlers",
            "items": {
                "type": "array",
                "description": "Pin pair for motor controlers",
                "items": {
                    "type": "integer"
                },
                "minItems": 2,
                "maxItems": 2
            }
        }
    }
}
